{
	"dev" : {
		"saveToHistory" : {
			"url" : "http://localhost/vod_api/serve/AddMovieHistory",
			"port" : ""
		},
		"mockedMovies" : { 
			"url" : "https://demo2697834.mockable.io/movies",
			"port" : ""
		},
		"getMovieHistory" : {
			"url" : "http://localhost/vod_api/serve/GetMovieHistory/",
			"port" : ""
		},
		"debug" : true
	},

	"localTest" : {
		"saveToHistory" : {
			"url" : "http://localhost/vod_api/serve/AddMovieHistory",
			"port" : ""
		},
		"mockedMovies" : { 
			"url" : "https://demo2697834.mockable.io/movies",
			"port" : ""
		},
		"getMovieHistory" : {
			"url" : "http://localhost/vod_api/serve/GetMovieHistory/",
			"port" : ""
		},
		"debug" : true
	},

	"test" : {
		"saveToHistory" : {
			"url" : "http://192.168.1.63/vod_api/serve/AddMovieHistory",
			"port" : ""
		},
		"mockedMovies" : { 
			"url" : "https://demo2697834.mockable.io/movies",
			"port" : ""
		},
		"getMovieHistory" : {
			"url" : "http://192.168.1.63/vod_api/serve/GetMovieHistory/",
			"port" : ""
		},
		"debug" : true
	},

	"uat" : {
		"saveToHistory" : {
			"url" : "http://modapi-alinan.rhcloud.com/AddMovieHistory",
			"port" : ""
		},
		"mockedMovies" : { 
			"url" : "https://demo2697834.mockable.io/movies",
			"port" : ""
		},
		"getMovieHistory" : {
			"url" : "http://modapi-alinan.rhcloud.com/GetMovieHistory/",
			"port" : ""
		},
		"debug" : true
	},

	"prod" : {
		"saveToHistory" : {
			"url" : "https://modapi-alinan.rhcloud.com/AddMovieHistory",
			"port" : ""
		},
		"mockedMovies" : { 
			"url" : "https://demo2697834.mockable.io/movies",
			"port" : ""
		},
		"getMovieHistory" : {
			"url" : "https://modapi-alinan.rhcloud.com/GetMovieHistory/",
			"port" : ""
		},
		"debug" : false
	}

}